{
    "type": "minecraft:crafting_shaped",
    "pattern": [
        "ACA",
        "BDB",
        "AAA"
    ],
    "key": {
        "A": 
        {
            "item": "planttech2:plantium_ingot"
        },
        "B": 
        {
            "item": "planttech2:cable"
        },
        "C": 
        {
            "item": "planttech2:analyser"
        },
        "D": 
        {
            "item": "planttech2:machineshell"
        }
    },
    "result": {
        "item": "planttech2:identifier",
        "count": 1
    }
}
