{
    "parent": "item/generated",
    "textures": {
        "layer0": "planttech2:items/biomasscontainer_empty"
    },
    "overrides": [
        { "predicate": { "filled": 0 }, "model": "planttech2:item/biomasscontainer_empty" },
        { "predicate": { "filled": 1 }, "model": "planttech2:item/biomasscontainer_0" },
        { "predicate": { "filled": 2 }, "model": "planttech2:item/biomasscontainer_1" },
        { "predicate": { "filled": 3 }, "model": "planttech2:item/biomasscontainer_2" },
        { "predicate": { "filled": 4 }, "model": "planttech2:item/biomasscontainer_3" },
        { "predicate": { "filled": 5 }, "model": "planttech2:item/biomasscontainer_4" },
        { "predicate": { "filled": 6 }, "model": "planttech2:item/biomasscontainer_5" },
        { "predicate": { "filled": 7 }, "model": "planttech2:item/biomasscontainer_6" },
        { "predicate": { "filled": 8 }, "model": "planttech2:item/biomasscontainer_7" },
        { "predicate": { "filled": 9 }, "model": "planttech2:item/biomasscontainer_8" }
    ]
}