{
    "enabled": true,
    "temperature": 4,
    "seeds": [
        "planttech2:nether_wart_seeds", 
        "minecraft:nether_wart"
    ],
    "drops":[
    	{
            "item": "planttech2:nether_wart_particles",
            "min": 0, 
            "max": 4
        }
    ],
    "parents": [
    ],
    "soil": 
    {
    }
}
