{
    "enabled": true,
    "temperature": 2,
    "seeds": [
        "planttech2:red_tulip_seeds",
        "minecraft:red_tulip"
    ],
    "drops":[
        {
            "item": "minecraft:red_tulip",
            "min": 0, 
            "max": 4
        },
        {
            "item": "planttech2:color_particles",
            "min": 1, 
            "max": 4
        }
    ],
    "parents": [
    ],
    "soil": 
    {
    }
}
