{
    "enabled": true,
    "temperature": 2,
    "seeds": [
        "planttech2:wheat_seeds",
        "minecraft:wheat_seeds"
    ],
    "drops":[
        {
            "item": "minecraft:wheat",
            "min": 1, 
            "max": 4
        }
    ],
    "parents": [
    ],
    "soil": 
    {
    }
}
