{
    "type": "planttech2:compressing",
    "input": {
      "item": "planttech2:nether_wart_particles",
      "amount": 8
    },
    "result": {
      "item": "minecraft:nether_wart",
      "amount": 1
    }
  }
